Engine/Binaries/Win64/CrashReportClient.exe	2019-07-09T10:12:14.442Z
Engine/Binaries/Win64/UE4Game.exe	2019-07-09T10:12:43.291Z
Engine/Extras/Redist/en-us/UE4PrereqSetup_x64.exe	2019-05-23T08:12:57.192Z
Engine/Binaries/ThirdParty/Oculus/OVRPlugin/OVRPlugin/Win64/OVRPlugin.dll	2019-05-23T08:09:47.055Z
Engine/Binaries/ThirdParty/DbgHelp/dbghelp.dll	2019-05-23T08:09:29.680Z
Engine/Binaries/ThirdParty/libsndfile/Win64/libsndfile-1.dll	2019-05-23T08:09:30.486Z
Engine/Binaries/ThirdParty/NVIDIA/NVaftermath/Win64/GFSDK_Aftermath_Lib.x64.dll	2019-05-23T08:09:46.799Z
Engine/Binaries/ThirdParty/Windows/DirectX/x64/WinPixEventRuntime.dll	2019-05-23T08:10:16.449Z
Engine/Binaries/ThirdParty/PhysX3/Win64/VS2015/PxFoundationPROFILE_x64.dll	2019-05-23T08:09:52.063Z
Engine/Binaries/ThirdParty/PhysX3/Win64/VS2015/PxPvdSDKPROFILE_x64.dll	2019-05-23T08:09:52.114Z
Engine/Binaries/ThirdParty/PhysX3/Win64/VS2015/PhysX3PROFILE_x64.dll	2019-05-23T08:09:51.880Z
Engine/Binaries/ThirdParty/PhysX3/Win64/VS2015/PhysX3CookingPROFILE_x64.dll	2019-05-23T08:09:51.834Z
Engine/Binaries/ThirdParty/PhysX3/Win64/VS2015/PhysX3CommonPROFILE_x64.dll	2019-05-23T08:09:51.104Z
Engine/Binaries/ThirdParty/PhysX3/Win64/VS2015/APEX_ClothingPROFILE_x64.dll	2019-05-23T08:09:49.387Z
Engine/Binaries/ThirdParty/PhysX3/Win64/VS2015/APEX_LegacyPROFILE_x64.dll	2019-05-23T08:09:49.632Z
Engine/Binaries/ThirdParty/PhysX3/Win64/VS2015/ApexFrameworkPROFILE_x64.dll	2019-05-23T08:09:49.744Z
Engine/Binaries/ThirdParty/PhysX3/Win64/VS2015/NvClothPROFILE_x64.dll	2019-05-23T08:09:50.187Z
Engine/Binaries/ThirdParty/OpenVR/OpenVRv1_0_16/Win64/openvr_api.dll	2019-05-23T08:09:47.770Z
Engine/Binaries/ThirdParty/Ogg/Win64/VS2015/libogg_64.dll	2019-05-23T08:09:47.618Z
Engine/Binaries/ThirdParty/Vorbis/Win64/VS2015/libvorbis_64.dll	2019-05-23T08:10:16.206Z
Engine/Binaries/ThirdParty/Vorbis/Win64/VS2015/libvorbisfile_64.dll	2019-05-23T08:10:16.216Z
MyProject2.exe	2019-08-21T09:35:11.912Z
